root@melmoth-N71Jv:/# lscpu
Architecture:          x86_64
Mode(s) opératoire(s) des processeurs :32-bit, 64-bit
Byte Order:            Little Endian
CPU(s):                4
On-line CPU(s) list:   0-3
Thread(s) par cœur : 2
Cœur(s) par socket : 2
Socket(s):             1
Nœud(s) NUMA :       1
Identifiant constructeur :GenuineIntel
Famille de processeur :6
Modèle :             37
Model name:            Intel(R) Core(TM) i5 CPU       M 460  @ 2.53GHz
Révision :           5
Vitesse du processeur en MHz :1199.000
CPU max MHz:           2534,0000
CPU min MHz:           1199,0000
BogoMIPS:              5053.87
Virtualisation :      VT-x
Cache L1d :           32K
Cache L1i :           32K
Cache L2 :            256K
Cache L3 :            3072K
NUMA node0 CPU(s):     0-3

3072
